# 3ds Max Wavefront OBJ Exporter v0.94b - (c)2007 guruware
# File Created: 23.08.2010 20:00:41

mtllib car.mtl

#
# object pCylinder1
#

v  -0.1813 0.0965 0.2073
v  -0.1724 0.0646 0.2073
v  -0.1724 0.0646 0.1506
v  -0.1813 0.0965 0.1506
v  -0.2049 0.1197 0.2073
v  -0.2049 0.1197 0.1506
v  -0.2369 0.1280 0.2073
v  -0.2369 0.1280 0.1506
v  -0.2689 0.1192 0.2073
v  -0.2689 0.1192 0.1506
v  -0.2921 0.0956 0.2073
v  -0.2921 0.0956 0.1506
v  -0.3004 0.0635 0.2073
v  -0.3004 0.0635 0.1506
v  -0.2915 0.0316 0.2073
v  -0.2915 0.0316 0.1506
v  -0.2679 0.0084 0.2073
v  -0.2679 0.0084 0.1506
v  -0.2359 0.0001 0.2073
v  -0.2359 0.0001 0.1506
v  -0.2040 0.0089 0.2073
v  -0.2040 0.0089 0.1506
v  -0.1807 0.0325 0.2073
v  -0.1807 0.0325 0.1506
v  -0.2364 0.0641 0.2073
# 25 vertices

vt 0.6127 0.8849 0.0000
vt 0.6095 0.8849 0.0000
vt 0.6095 0.8493 0.0000
vt 0.6127 0.8493 0.0000
vt 0.6159 0.8849 0.0000
vt 0.6159 0.8493 0.0000
vt 0.6191 0.8849 0.0000
vt 0.6191 0.8493 0.0000
vt 0.6223 0.8849 0.0000
vt 0.6223 0.8493 0.0000
vt 0.6254 0.8849 0.0000
vt 0.6254 0.8493 0.0000
vt 0.6286 0.8849 0.0000
vt 0.6286 0.8493 0.0000
vt 0.6318 0.8849 0.0000
vt 0.6318 0.8493 0.0000
vt 0.6350 0.8849 0.0000
vt 0.6350 0.8493 0.0000
vt 0.6382 0.8849 0.0000
vt 0.6382 0.8493 0.0000
vt 0.6414 0.8849 0.0000
vt 0.6414 0.8493 0.0000
vt 0.6445 0.8849 0.0000
vt 0.6445 0.8493 0.0000
vt 0.6477 0.8849 0.0000
vt 0.6477 0.8493 0.0000
vt 0.8040 0.9931 0.0000
vt 0.8039 0.8160 0.0000
vt 0.7069 0.8464 0.0000
vt 0.6386 0.9296 0.0000
vt 0.6185 0.9931 0.0000
vt 0.8037 0.9927 0.0000
vt 0.6183 0.9927 0.0000
vt 0.7068 0.8464 0.0000
vt 0.8036 0.8160 0.0000
vt 0.9971 0.9927 0.0000
vt 0.9054 0.8464 0.0000
vt 0.9741 0.9296 0.0000
vt 0.9971 0.9931 0.0000
# 39 texture coords

g pCylinder1
usemtl lambert2SG
s 1
f 1/1 2/2 3/3 4/4 
f 5/5 1/1 4/4 6/6 
f 7/7 5/5 6/6 8/8 
f 9/9 7/7 8/8 10/10 
f 11/11 9/9 10/10 12/12 
f 13/13 11/11 12/12 14/14 
f 15/15 13/13 14/14 16/16 
f 17/17 15/15 16/16 18/18 
f 19/19 17/17 18/18 20/20 
f 21/21 19/19 20/20 22/22 
f 23/23 21/21 22/22 24/24 
f 2/25 23/23 24/24 3/26 
f 25/27 7/28 9/29 11/30 13/31 
f 25/32 13/33 15/30 17/34 19/35 
f 2/36 25/32 19/35 21/37 23/38 
f 2/39 1/38 5/37 7/28 25/27 
# 16 polygons

#
# object polySurface12
#

v  -0.4063 0.0707 -0.0512
v  -0.3969 0.0522 -0.0512
v  -0.3969 0.0522 0.1242
v  -0.4063 0.0707 0.1242
v  -0.3122 0.0508 -0.1086
v  -0.3536 0.0508 -0.1095
v  -0.3668 0.0708 -0.1173
v  -0.3096 0.0708 -0.1139
v  -0.3743 0.0521 -0.0985
v  -0.3885 0.0707 -0.1057
v  -0.4044 0.1782 -0.0650
v  -0.4006 0.1621 -0.0601
v  -0.4006 0.1621 0.1331
v  -0.4044 0.1782 0.1380
v  -0.1847 0.2393 -0.0547
v  -0.1821 0.2243 -0.0813
v  -0.2184 0.1774 -0.1057
v  -0.3159 0.1819 -0.0821
v  -0.3157 0.1856 -0.0711
v  -0.0864 0.2432 -0.0725
v  -0.0864 0.1765 -0.1198
v  -0.1847 0.2393 0.1277
v  -0.3157 0.1856 0.1440
v  -0.2378 0.1526 -0.1304
v  -0.0868 0.1365 -0.1351
v  -0.1618 0.0668 -0.1318
v  -0.0869 0.0668 -0.1383
v  -0.0869 0.0421 -0.1325
v  -0.1593 0.0421 -0.1279
v  -0.0864 0.2537 -0.0554
v  -0.0864 0.2537 0.1284
v  -0.4010 0.1764 -0.0779
v  -0.3951 0.1605 -0.0976
v  -0.4029 0.1108 -0.0517
v  -0.4029 0.1108 0.1246
v  -0.4132 0.1098 -0.0517
v  -0.4132 0.1098 0.1246
v  -0.3974 0.1097 -0.1076
v  -0.3731 0.1040 -0.1234
v  -0.2972 0.1013 -0.1223
v  -0.3921 0.1125 -0.1079
v  -0.3592 0.1614 -0.1144
v  -0.3690 0.1195 -0.1248
v  0.0370 0.2422 -0.0689
v  0.0370 0.2422 0.1419
v  0.1429 0.1777 0.1783
v  0.1809 0.1838 0.1092
v  0.1809 0.1838 -0.0362
v  0.1429 0.1777 -0.1053
v  0.3423 0.0728 -0.1398
v  0.3281 0.1027 -0.1433
v  0.4100 0.0856 -0.1286
v  0.4100 0.0606 -0.1237
v  0.3034 0.1221 -0.1404
v  0.4039 0.0970 -0.1293
v  0.4064 0.1210 -0.1271
v  0.2719 0.1291 -0.1435
v  0.2417 0.1218 -0.1430
v  0.2406 0.1394 -0.1386
v  0.4103 0.1369 -0.1209
v  0.4369 0.1325 -0.0957
v  0.4412 0.1200 -0.0970
v  0.4392 0.0921 -0.0970
v  0.4384 0.0855 -0.0964
v  0.4370 0.0616 -0.0949
v  0.4099 0.1502 -0.0690
v  0.4555 0.1328 -0.0492
v  0.2406 0.1582 -0.1306
v  0.2406 0.1722 -0.1053
v  0.4629 0.0844 -0.0010
v  0.4625 0.0635 -0.0011
v  0.4561 0.0636 -0.0492
v  0.4557 0.0850 -0.0491
v  0.2406 0.1763 -0.0291
v  0.4098 0.1536 -0.0110
v  0.0328 0.2279 -0.0880
v  0.1039 0.1721 -0.1268
v  0.1106 0.0669 -0.1383
v  0.2021 0.0679 -0.1392
v  0.2019 0.0421 -0.1325
v  0.1106 0.0421 -0.1329
v  0.1101 0.1365 -0.1389
v  0.3541 0.0392 -0.1307
v  0.3422 0.0392 -0.1308
v  0.4063 0.0392 -0.1162
v  0.4583 0.0921 -0.0491
v  0.4703 0.0921 -0.0010
v  0.4612 0.1177 -0.0492
v  0.4710 0.1180 -0.0010
v  0.4597 0.1333 -0.0010
v  -0.2363 0.1298 -0.1276
v  -0.2713 0.1220 -0.1272
v  -0.2036 0.1227 -0.1331
v  -0.1787 0.1018 -0.1333
v  0.2160 0.1017 -0.1421
v  0.2406 0.1763 0.1021
v  0.4098 0.1536 0.0839
v  0.4597 0.1333 0.0740
v  0.4710 0.1180 0.0740
v  0.4703 0.0921 0.0740
v  0.4629 0.0844 0.0740
v  -0.3122 0.0508 0.1816
v  -0.3096 0.0708 0.1869
v  -0.3668 0.0708 0.1902
v  -0.3536 0.0508 0.1825
v  -0.3743 0.0521 0.1715
v  -0.3885 0.0707 0.1787
v  -0.3159 0.1819 0.1551
v  -0.2184 0.1774 0.1787
v  -0.1821 0.2243 0.1543
v  -0.0864 0.1765 0.1928
v  -0.0864 0.2432 0.1454
v  -0.2378 0.1526 0.1997
v  -0.0868 0.1365 0.2081
v  -0.1618 0.0668 0.2047
v  -0.1593 0.0421 0.2009
v  -0.0869 0.0421 0.2055
v  -0.0869 0.0668 0.2113
v  -0.4010 0.1764 0.1509
v  -0.3951 0.1605 0.1706
v  -0.3974 0.1097 0.1806
v  -0.2972 0.1013 0.1952
v  -0.3731 0.1040 0.1963
v  -0.3921 0.1125 0.1809
v  -0.3592 0.1614 0.1874
v  -0.3690 0.1195 0.1978
v  0.3281 0.1027 0.2162
v  0.4100 0.0856 0.2016
v  0.4039 0.0970 0.2023
v  0.3034 0.1221 0.2134
v  0.2406 0.1394 0.2116
v  0.4064 0.1210 0.2000
v  0.4103 0.1369 0.1938
v  0.2406 0.1582 0.2036
v  0.3423 0.0728 0.2127
v  0.4100 0.0606 0.1967
v  0.4412 0.1200 0.1699
v  0.4369 0.1325 0.1687
v  0.4384 0.0855 0.1693
v  0.4392 0.0921 0.1700
v  0.4370 0.0616 0.1679
v  0.4555 0.1328 0.1221
v  0.4099 0.1502 0.1420
v  0.2406 0.1722 0.1783
v  0.4557 0.0850 0.1221
v  0.4561 0.0636 0.1222
v  0.4625 0.0635 0.0741
v  0.0328 0.2279 0.1610
v  0.1039 0.1721 0.1997
v  0.1106 0.0669 0.2113
v  0.1106 0.0421 0.2058
v  0.2019 0.0421 0.2055
v  0.2021 0.0679 0.2121
v  0.2417 0.1218 0.2159
v  0.2719 0.1291 0.2165
v  0.1101 0.1365 0.2118
v  0.3541 0.0392 0.2037
v  0.4063 0.0392 0.1892
v  0.3422 0.0392 0.2038
v  0.4583 0.0921 0.1221
v  0.4612 0.1177 0.1222
v  -0.2713 0.1220 0.2002
v  -0.2363 0.1298 0.2006
v  -0.2036 0.1227 0.2061
v  -0.1787 0.1018 0.2062
v  0.2160 0.1017 0.2151
v  0.3422 0.0392 0.1617
v  0.2019 0.0421 0.1619
v  -0.1568 0.0508 0.1481
v  -0.3122 0.0508 0.1481
v  -0.3122 0.0508 -0.0775
v  -0.1568 0.0508 -0.0775
v  0.2019 0.0421 -0.0890
v  0.3422 0.0392 -0.0887
# 174 vertices

vt 0.6511 0.2994 0.0000
vt 0.5923 0.2995 0.0000
vt 0.5920 0.7094 0.0000
vt 0.6515 0.7094 0.0000
vt 0.5827 0.0097 0.0000
vt 0.5827 0.0633 0.0000
vt 0.6955 0.0633 0.0000
vt 0.6955 0.0098 0.0000
vt 0.5824 0.0903 0.0000
vt 0.5824 0.2687 0.0000
vt 0.6516 0.2687 0.0000
vt 0.6516 0.0690 0.0000
vt 0.9941 0.2669 0.0000
vt 0.9452 0.2785 0.0000
vt 0.9481 0.7299 0.0000
vt 0.9945 0.7415 0.0000
vt 0.7245 0.6084 0.0000
vt 0.7544 0.5860 0.0000
vt 0.7527 0.4777 0.0000
vt 0.7310 0.4016 0.0000
vt 0.7244 0.4079 0.0000
vt 0.6291 0.7095 0.0000
vt 0.6892 0.7095 0.0000
vt 0.6892 0.5941 0.0000
vt 0.6291 0.5941 0.0000
vt 0.6890 0.4532 0.0000
vt 0.6890 0.3600 0.0000
vt 0.6290 0.3600 0.0000
vt 0.6291 0.4535 0.0000
vt 0.2119 0.4646 0.0000
vt 0.2210 0.5501 0.0000
vt 0.2832 0.5501 0.0000
vt 0.2830 0.4645 0.0000
vt 0.6956 0.0343 0.0000
vt 0.6955 0.0343 0.0000
vt 0.5823 0.0343 0.0000
vt 0.7013 0.6812 0.0000
vt 0.7305 0.6816 0.0000
vt 0.7305 0.6067 0.0000
vt 0.7013 0.6063 0.0000
vt 0.7238 0.1813 0.0000
vt 0.7233 0.2318 0.0000
vt 0.6986 0.2313 0.0000
vt 0.6990 0.1813 0.0000
vt 0.9885 0.2368 0.0000
vt 0.9451 0.1909 0.0000
vt 0.7792 0.2983 0.0000
vt 0.7796 0.7103 0.0000
vt 0.7761 0.2983 0.0000
vt 0.7765 0.7103 0.0000
vt 0.1568 0.5831 0.0000
vt 0.4781 0.5822 0.0000
vt 0.4672 0.2373 0.0000
vt 0.1639 0.2382 0.0000
vt 0.6516 0.0101 0.0000
vt 0.5824 0.0101 0.0000
vt 0.7769 0.0648 0.0000
vt 0.7760 0.2687 0.0000
vt 0.1781 0.2701 0.0000
vt 0.1511 0.2701 0.0000
vt 0.1482 0.3521 0.0000
vt 0.1839 0.3519 0.0000
vt 0.7791 0.2687 0.0000
vt 0.9453 0.2687 0.0000
vt 0.9450 0.0986 0.0000
vt 0.7791 0.0640 0.0000
vt 0.7592 0.0101 0.0000
vt 0.9452 0.0101 0.0000
vt 0.7878 0.0101 0.0000
vt 0.6889 0.2749 0.0000
vt 0.6888 0.4202 0.0000
vt 0.6289 0.4202 0.0000
vt 0.6288 0.3901 0.0000
vt 0.6289 0.3046 0.0000
vt 0.6290 0.2748 0.0000
vt 0.4851 0.2867 0.0000
vt 0.4784 0.3520 0.0000
vt 0.5169 0.3230 0.0000
vt 0.5170 0.2701 0.0000
vt 0.4668 0.4003 0.0000
vt 0.5141 0.3516 0.0000
vt 0.5153 0.4474 0.0000
vt 0.4519 0.4199 0.0000
vt 0.4377 0.4003 0.0000
vt 0.4372 0.4475 0.0000
vt -0.0001 0.2000 0.0000
vt 0.0002 0.2633 0.0000
vt 0.0752 0.2633 0.0000
vt 0.0752 0.2000 0.0000
vt -0.0002 0.1279 0.0000
vt 0.0752 0.1279 0.0000
vt 0.0752 0.1090 0.0000
vt -0.0001 0.1090 0.0000
vt 0.0001 0.0000 0.0000
vt 0.0752 0.0000 0.0000
vt 0.3778 0.5871 0.0000
vt 0.3921 0.7112 0.0000
vt 0.5741 0.7539 0.0000
vt 0.5735 0.5878 0.0000
vt 0.1669 0.5867 0.0000
vt 0.1209 0.6530 0.0000
vt 0.4673 0.1090 0.0000
vt 0.4673 0.0000 0.0000
vt 0.2160 0.0000 0.0000
vt 0.2160 0.1090 0.0000
vt 0.0855 0.8364 0.0000
vt 0.4256 0.8711 0.0000
vt 0.7014 0.5128 0.0000
vt 0.7305 0.5129 0.0000
vt 0.7305 0.4448 0.0000
vt 0.7014 0.4441 0.0000
vt 0.7548 0.1779 0.0000
vt 0.7543 0.2358 0.0000
vt 0.6891 0.4372 0.0000
vt 0.6291 0.4372 0.0000
vt 0.4372 0.5501 0.0000
vt 0.5171 0.5500 0.0000
vt 0.0029 0.4828 0.0000
vt 0.0028 0.5690 0.0000
vt 0.5652 0.5690 0.0000
vt 0.5753 0.4830 0.0000
vt 0.5752 0.2635 0.0000
vt 0.0036 0.2630 0.0000
vt 0.6295 0.6830 0.0000
vt 0.6295 0.7000 0.0000
vt 0.6886 0.7001 0.0000
vt 0.6887 0.6058 0.0000
vt 0.6297 0.6058 0.0000
vt 0.2160 0.1279 0.0000
vt 0.4673 0.1279 0.0000
vt 0.2160 0.2000 0.0000
vt 0.4673 0.2000 0.0000
vt 0.2160 0.2633 0.0000
vt 0.4673 0.2633 0.0000
vt 0.1547 0.4646 0.0000
vt 0.1378 0.4646 0.0000
vt 0.1350 0.5501 0.0000
vt 0.1751 0.5502 0.0000
vt 0.7181 0.6114 0.0000
vt 0.7181 0.8067 0.0000
vt 0.7412 0.8067 0.0000
vt 0.7413 0.6114 0.0000
vt 0.5741 0.8891 0.0000
vt 0.2126 0.4199 0.0000
vt 0.1961 0.4003 0.0000
vt 0.1501 0.4003 0.0000
vt 0.2280 0.4003 0.0000
vt 0.2830 0.2701 0.0000
vt 0.2477 0.2701 0.0000
vt 0.2397 0.3519 0.0000
vt 0.4256 0.3519 0.0000
vt 0.4191 0.2701 0.0000
vt 0.3760 0.2701 0.0000
vt 0.3757 0.4475 0.0000
vt 0.3728 0.5501 0.0000
vt 0.0044 0.5868 0.0000
vt 0.0045 0.6508 0.0000
vt 0.0045 0.8229 0.0000
vt 0.4256 0.8713 0.0000
vt 0.4463 0.9928 0.0000
vt 0.0859 0.9928 0.0000
vt 0.5741 0.8894 0.0000
vt 0.5741 0.9928 0.0000
vt 0.5727 0.2000 0.0000
vt 0.5727 0.2633 0.0000
vt 0.5727 0.1279 0.0000
vt 0.5727 0.1090 0.0000
vt 0.5824 0.0900 0.0000
vt 0.6516 0.0683 0.0000
vt 0.6516 0.2688 0.0000
vt 0.5824 0.2688 0.0000
vt 0.9890 0.7716 0.0000
vt 0.9432 0.8175 0.0000
vt 0.5824 0.0099 0.0000
vt 0.6516 0.0099 0.0000
vt 0.7769 0.0645 0.0000
vt 0.7760 0.2688 0.0000
vt 0.7791 0.2688 0.0000
vt 0.7791 0.0638 0.0000
vt 0.9472 0.0983 0.0000
vt 0.9475 0.2688 0.0000
vt 0.7592 0.0099 0.0000
vt 0.9452 0.0099 0.0000
vt 0.7878 0.0099 0.0000
vt 0.5736 0.5878 0.0000
vt 0.5741 0.7541 0.0000
vt 0.3920 0.7114 0.0000
vt 0.1209 0.6531 0.0000
vt 0.2159 0.1090 0.0000
vt 0.2159 0.0000 0.0000
vt 0.0026 0.4828 0.0000
vt 0.2159 0.1279 0.0000
vt 0.2159 0.2000 0.0000
vt 0.2159 0.2633 0.0000
vt 0.5728 0.0000 0.0000
vt 0.6262 0.8458 0.0000
vt 0.6267 0.8444 0.0000
vt 0.6271 0.8422 0.0000
vt 0.6272 0.8399 0.0000
vt 0.6272 0.8363 0.0000
vt 0.6271 0.8340 0.0000
vt 0.6267 0.8318 0.0000
vt 0.6262 0.8304 0.0000
vt 0.6994 0.7883 0.0000
vt 0.5808 0.7824 0.0000
vt 0.5804 0.5032 0.0000
vt 0.6990 0.4953 0.0000
vt 0.0045 0.6509 0.0000
vt 0.0045 0.8231 0.0000
vt 0.0045 0.9929 0.0000
vt 0.6251 0.8300 0.0000
vt 0.6249 0.8300 0.0000
vt 0.6249 0.8321 0.0000
vt 0.6223 0.8321 0.0000
vt 0.6223 0.8300 0.0000
vt 0.6205 0.8299 0.0000
vt 0.6168 0.8300 0.0000
vt 0.6154 0.8302 0.0000
vt 0.6154 0.8327 0.0000
vt 0.6125 0.8327 0.0000
vt 0.6125 0.8311 0.0000
vt 0.6117 0.8311 0.0000
vt 0.6113 0.8316 0.0000
vt 0.6109 0.8339 0.0000
vt 0.6109 0.8423 0.0000
vt 0.6113 0.8446 0.0000
vt 0.6117 0.8451 0.0000
vt 0.6125 0.8451 0.0000
vt 0.6125 0.8436 0.0000
vt 0.6154 0.8436 0.0000
vt 0.6154 0.8460 0.0000
vt 0.6168 0.8463 0.0000
vt 0.6205 0.8463 0.0000
vt 0.6223 0.8463 0.0000
vt 0.6223 0.8442 0.0000
vt 0.6249 0.8441 0.0000
vt 0.6249 0.8462 0.0000
vt 0.6251 0.8462 0.0000
vt 0.6261 0.8455 0.0000
vt 0.6261 0.8307 0.0000
# 240 texture coords

g polySurface12
usemtl lambert2SG
s 1
f 26/40 27/41 28/42 29/43 
s 2
f 30/44 31/45 32/46 33/47 
s 1
f 34/48 27/49 26/50 35/51 
s 3
f 36/52 37/53 38/54 39/55 
s 2
f 40/56 41/57 42/58 43/59 44/60 
s off
f 42/61 41/62 45/63 46/64 
f 47/65 40/66 44/67 48/68 
s 2
f 49/69 42/70 46/71 50/72 
f 51/73 52/74 53/75 54/75 
f 41/76 40/77 55/78 45/79 
f 56/80 55/81 40/82 47/83 
s 3
f 57/84 58/85 37/53 36/52 
f 37/53 59/86 60/87 38/54 
s 1
f 61/88 26/40 29/43 62/89 
s 2
f 48/90 44/91 36/92 39/93 
f 35/51 32/94 31/95 34/48 
s 1
f 63/96 35/51 26/50 61/97 
s 2
f 33/98 32/99 64/100 65/101 
s 3
f 59/102 37/103 58/104 66/105 
s 2
f 32/94 35/51 63/96 64/106 
f 67/107 68/108 66/105 58/104 
f 69/109 70/110 71/111 72/112 73/113 74/114 
f 75/115 76/116 77/117 78/118 
f 76/116 79/119 80/120 77/117 
f 81/121 80/120 79/119 82/122 83/123 84/124 
f 81/125 85/126 86/127 87/128 
f 80/129 88/130 89/131 77/132 
f 78/133 77/132 89/131 90/134 
f 85/135 91/136 92/137 86/138 
f 93/139 94/140 91/136 85/135 
f 95/141 96/142 97/143 98/144 
f 94/140 99/145 100/146 91/136 
f 101/147 69/148 74/149 102/150 
f 45/79 55/78 69/148 101/147 
f 70/151 69/152 55/81 56/80 
f 103/74 104/74 105/75 106/75 
s off
f 101/153 102/154 46/64 45/63 
s 2
f 87/128 88/130 80/129 81/125 
f 84/124 93/155 85/156 81/121 
f 50/157 46/158 102/159 107/160 
f 52/74 103/74 106/75 53/75 
f 107/160 103/161 52/162 50/157 
f 108/163 109/164 75/165 78/166 110/167 
f 95/141 98/144 111/168 112/169 
f 112/169 111/168 113/170 114/171 
f 114/171 113/170 92/172 115/173 
f 67/174 58/175 57/176 43/177 
f 43/178 57/179 36/180 44/181 
f 86/127 92/172 113/170 87/128 
f 87/128 113/170 111/168 88/130 
f 88/130 111/168 98/144 89/131 
f 89/131 98/144 97/143 90/134 
f 43/177 42/70 49/69 67/174 
s 7
f 63/96 61/97 59/102 66/105 
s 2
f 92/137 91/136 100/146 115/182 
f 49/69 116/183 117/184 68/185 67/174 
f 68/108 64/106 63/96 66/105 
f 64/100 68/185 117/184 65/101 
f 118/186 116/183 49/69 50/72 52/187 51/188 119/189 
f 84/124 83/123 120/190 104/191 103/192 107/193 
f 107/193 102/194 93/155 84/124 
f 102/195 74/196 94/140 93/139 
f 99/145 94/140 74/196 73/197 
f 121/145 122/198 100/199 99/200 
f 122/198 123/201 115/202 100/199 
f 123/173 124/171 114/203 115/204 
f 124/171 125/169 112/205 114/203 
f 125/169 126/141 95/206 112/205 
f 127/44 128/47 129/46 130/45 
s 1
f 131/207 132/208 29/209 28/210 
s 2
f 47/56 48/60 133/59 134/58 135/57 
s off
f 134/61 136/64 137/63 135/62 
s 2
f 138/69 139/72 136/71 134/70 
f 140/73 141/75 142/75 143/74 
f 135/76 137/79 56/78 47/77 
s 3
f 144/211 39/55 38/54 145/212 
s 2
f 132/208 131/207 130/213 129/214 
s 1
f 146/215 62/216 29/209 132/208 
s 2
f 128/98 147/101 148/100 129/99 
s 3
f 60/217 149/218 145/219 38/220 
s 2
f 129/214 148/221 146/215 132/208 
f 150/222 145/219 149/218 151/223 
f 152/116 153/117 154/120 155/119 
f 156/124 157/121 158/156 159/155 
f 160/115 161/118 153/117 152/116 
f 157/125 162/128 163/127 158/126 
f 154/129 153/132 164/131 165/130 
f 161/133 166/134 164/131 153/132 
f 158/135 163/224 167/225 168/226 
f 159/139 158/135 168/226 169/227 
f 126/141 170/228 171/229 172/142 
f 169/227 168/226 122/198 121/145 
f 173/147 174/150 71/149 70/148 
f 137/79 173/147 70/148 56/78 
f 175/74 176/75 177/75 178/74 
s off
f 173/153 137/63 136/64 174/154 
s 2
f 157/121 156/124 179/123 180/122 155/119 154/120 
f 162/128 157/125 154/129 165/130 
f 139/230 181/160 174/159 136/158 
f 143/74 142/75 176/75 175/74 
f 181/160 139/230 143/162 175/161 
f 182/163 183/167 161/166 160/165 184/164 
f 126/141 125/169 185/231 170/228 
f 125/169 124/171 186/232 185/231 
f 124/171 123/173 167/233 186/232 
f 150/174 133/177 144/176 145/175 
f 133/178 48/181 39/180 144/179 
f 163/127 162/128 186/232 167/233 
f 162/128 165/130 185/231 186/232 
f 165/130 164/131 170/228 185/231 
f 164/131 166/134 171/229 170/228 
f 133/177 150/174 138/69 134/70 
s 7
f 146/215 149/218 60/217 62/216 
f 61/88 62/89 60/87 59/86 
s 2
f 167/225 123/201 122/198 168/226 
f 126/141 172/142 96/234 95/206 
f 138/69 150/174 151/185 187/184 188/183 
f 151/223 149/218 146/215 148/221 
f 148/100 147/101 187/184 151/185 
s off
f 78/235 90/236 97/237 96/238 172/239 171/240 166/241 161/242 
f 161/243 183/244 110/245 78/246 
s 2
f 189/186 190/189 140/188 143/187 139/72 138/69 188/183 
f 156/124 181/193 175/192 178/191 191/190 179/123 
f 181/193 156/124 159/155 174/194 
f 174/195 159/139 169/227 71/247 
f 121/145 72/248 71/247 169/227 
f 72/248 121/145 99/200 73/249 
s off
f 182/250 184/251 192/252 193/253 177/254 176/255 142/256 141/257 194/258 195/259 127/260 130/261 131/262 28/263 27/264 34/265 31/266 30/267 196/268 197/269 54/270 53/271 106/272 105/273 198/274 199/275 109/276 108/277 110/278 183/279 
# 128 polygons

#
# object pCylinder2
#

v  0.3271 0.0965 0.2208
v  0.3360 0.0646 0.2208
v  0.3360 0.0646 0.1641
v  0.3271 0.0965 0.1641
v  0.3035 0.1197 0.2208
v  0.3035 0.1197 0.1641
v  0.2715 0.1280 0.2208
v  0.2715 0.1280 0.1641
v  0.2396 0.1192 0.2208
v  0.2396 0.1192 0.1641
v  0.2163 0.0956 0.2208
v  0.2163 0.0956 0.1641
v  0.2080 0.0635 0.2208
v  0.2080 0.0635 0.1641
v  0.2169 0.0316 0.2208
v  0.2169 0.0316 0.1641
v  0.2405 0.0084 0.2208
v  0.2405 0.0084 0.1641
v  0.2725 0.0001 0.2208
v  0.2725 0.0001 0.1641
v  0.3045 0.0089 0.2208
v  0.3045 0.0089 0.1641
v  0.3277 0.0325 0.2208
v  0.3277 0.0325 0.1641
v  0.2720 0.0641 0.2208
# 25 vertices

vt 0.6127 0.8849 0.0000
vt 0.6095 0.8849 0.0000
vt 0.6095 0.8493 0.0000
vt 0.6127 0.8493 0.0000
vt 0.6159 0.8849 0.0000
vt 0.6159 0.8493 0.0000
vt 0.6191 0.8849 0.0000
vt 0.6191 0.8493 0.0000
vt 0.6223 0.8849 0.0000
vt 0.6223 0.8493 0.0000
vt 0.6254 0.8849 0.0000
vt 0.6254 0.8493 0.0000
vt 0.6286 0.8849 0.0000
vt 0.6286 0.8493 0.0000
vt 0.6318 0.8849 0.0000
vt 0.6318 0.8493 0.0000
vt 0.6350 0.8849 0.0000
vt 0.6350 0.8493 0.0000
vt 0.6382 0.8849 0.0000
vt 0.6382 0.8493 0.0000
vt 0.6414 0.8849 0.0000
vt 0.6414 0.8493 0.0000
vt 0.6445 0.8849 0.0000
vt 0.6445 0.8493 0.0000
vt 0.6477 0.8849 0.0000
vt 0.6477 0.8493 0.0000
vt 0.8040 0.9931 0.0000
vt 0.8039 0.8160 0.0000
vt 0.7069 0.8464 0.0000
vt 0.6386 0.9296 0.0000
vt 0.6185 0.9931 0.0000
vt 0.8037 0.9927 0.0000
vt 0.6183 0.9927 0.0000
vt 0.7068 0.8464 0.0000
vt 0.8036 0.8160 0.0000
vt 0.9971 0.9927 0.0000
vt 0.9054 0.8464 0.0000
vt 0.9741 0.9296 0.0000
vt 0.9971 0.9931 0.0000
# 39 texture coords

g pCylinder2
usemtl lambert2SG
s 1
f 200/280 201/281 202/282 203/283 
f 204/284 200/280 203/283 205/285 
f 206/286 204/284 205/285 207/287 
f 208/288 206/286 207/287 209/289 
f 210/290 208/288 209/289 211/291 
f 212/292 210/290 211/291 213/293 
f 214/294 212/292 213/293 215/295 
f 216/296 214/294 215/295 217/297 
f 218/298 216/296 217/297 219/299 
f 220/300 218/298 219/299 221/301 
f 222/302 220/300 221/301 223/303 
f 201/304 222/302 223/303 202/305 
f 224/306 206/307 208/308 210/309 212/310 
f 224/311 212/312 214/309 216/313 218/314 
f 201/315 224/311 218/314 220/316 222/317 
f 201/318 200/317 204/316 206/307 224/306 
# 16 polygons

#
# object pCylinder3
#

v  0.3271 0.0965 -0.1476
v  0.3360 0.0646 -0.1476
v  0.3360 0.0646 -0.0909
v  0.3271 0.0965 -0.0909
v  0.3035 0.1197 -0.1476
v  0.3035 0.1197 -0.0909
v  0.2715 0.1280 -0.1476
v  0.2715 0.1280 -0.0909
v  0.2396 0.1192 -0.1476
v  0.2396 0.1192 -0.0909
v  0.2163 0.0956 -0.1476
v  0.2163 0.0956 -0.0909
v  0.2080 0.0635 -0.1476
v  0.2080 0.0635 -0.0909
v  0.2169 0.0316 -0.1476
v  0.2169 0.0316 -0.0909
v  0.2405 0.0084 -0.1476
v  0.2405 0.0084 -0.0909
v  0.2725 0.0001 -0.1476
v  0.2725 0.0001 -0.0909
v  0.3045 0.0089 -0.1476
v  0.3045 0.0089 -0.0909
v  0.3277 0.0325 -0.1476
v  0.3277 0.0325 -0.0909
v  0.2720 0.0641 -0.1476
# 25 vertices

vt 0.6127 0.8849 0.0000
vt 0.6095 0.8849 0.0000
vt 0.6095 0.8493 0.0000
vt 0.6127 0.8493 0.0000
vt 0.6159 0.8849 0.0000
vt 0.6159 0.8493 0.0000
vt 0.6191 0.8849 0.0000
vt 0.6191 0.8493 0.0000
vt 0.6223 0.8849 0.0000
vt 0.6223 0.8493 0.0000
vt 0.6254 0.8849 0.0000
vt 0.6254 0.8493 0.0000
vt 0.6286 0.8849 0.0000
vt 0.6286 0.8493 0.0000
vt 0.6318 0.8849 0.0000
vt 0.6318 0.8493 0.0000
vt 0.6350 0.8849 0.0000
vt 0.6350 0.8493 0.0000
vt 0.6382 0.8849 0.0000
vt 0.6382 0.8493 0.0000
vt 0.6414 0.8849 0.0000
vt 0.6414 0.8493 0.0000
vt 0.6445 0.8849 0.0000
vt 0.6445 0.8493 0.0000
vt 0.6477 0.8849 0.0000
vt 0.6477 0.8493 0.0000
vt 0.8040 0.9931 0.0000
vt 0.8039 0.8160 0.0000
vt 0.7069 0.8464 0.0000
vt 0.6386 0.9296 0.0000
vt 0.6185 0.9931 0.0000
vt 0.8037 0.9927 0.0000
vt 0.6183 0.9927 0.0000
vt 0.7068 0.8464 0.0000
vt 0.8036 0.8160 0.0000
vt 0.9971 0.9927 0.0000
vt 0.9054 0.8464 0.0000
vt 0.9741 0.9296 0.0000
vt 0.9971 0.9931 0.0000
# 39 texture coords

g pCylinder3
usemtl lambert2SG
s 1
f 225/319 226/320 227/321 228/322 
f 229/323 225/319 228/322 230/324 
f 231/325 229/323 230/324 232/326 
f 233/327 231/325 232/326 234/328 
f 235/329 233/327 234/328 236/330 
f 237/331 235/329 236/330 238/332 
f 239/333 237/331 238/332 240/334 
f 241/335 239/333 240/334 242/336 
f 243/337 241/335 242/336 244/338 
f 245/339 243/337 244/338 246/340 
f 247/341 245/339 246/340 248/342 
f 226/343 247/341 248/342 227/344 
f 249/345 231/346 233/347 235/348 237/349 
f 249/350 237/351 239/348 241/352 243/353 
f 226/354 249/350 243/353 245/355 247/356 
f 226/357 225/356 229/355 231/346 249/345 
# 16 polygons

#
# object pCylinder4
#

v  -0.1813 0.0965 -0.1354
v  -0.1724 0.0646 -0.1354
v  -0.1724 0.0646 -0.0787
v  -0.1813 0.0965 -0.0787
v  -0.2049 0.1197 -0.1354
v  -0.2049 0.1197 -0.0787
v  -0.2369 0.1280 -0.1354
v  -0.2369 0.1280 -0.0787
v  -0.2689 0.1192 -0.1354
v  -0.2689 0.1192 -0.0787
v  -0.2921 0.0956 -0.1354
v  -0.2921 0.0956 -0.0787
v  -0.3004 0.0635 -0.1354
v  -0.3004 0.0635 -0.0787
v  -0.2915 0.0316 -0.1354
v  -0.2915 0.0316 -0.0787
v  -0.2679 0.0084 -0.1354
v  -0.2679 0.0084 -0.0787
v  -0.2359 0.0001 -0.1354
v  -0.2359 0.0001 -0.0787
v  -0.2040 0.0089 -0.1354
v  -0.2040 0.0089 -0.0787
v  -0.1807 0.0325 -0.1354
v  -0.1807 0.0325 -0.0787
v  -0.2364 0.0641 -0.1354
# 25 vertices

vt 0.6127 0.8849 0.0000
vt 0.6095 0.8849 0.0000
vt 0.6095 0.8493 0.0000
vt 0.6127 0.8493 0.0000
vt 0.6159 0.8849 0.0000
vt 0.6159 0.8493 0.0000
vt 0.6191 0.8849 0.0000
vt 0.6191 0.8493 0.0000
vt 0.6223 0.8849 0.0000
vt 0.6223 0.8493 0.0000
vt 0.6254 0.8849 0.0000
vt 0.6254 0.8493 0.0000
vt 0.6286 0.8849 0.0000
vt 0.6286 0.8493 0.0000
vt 0.6318 0.8849 0.0000
vt 0.6318 0.8493 0.0000
vt 0.6350 0.8849 0.0000
vt 0.6350 0.8493 0.0000
vt 0.6382 0.8849 0.0000
vt 0.6382 0.8493 0.0000
vt 0.6414 0.8849 0.0000
vt 0.6414 0.8493 0.0000
vt 0.6445 0.8849 0.0000
vt 0.6445 0.8493 0.0000
vt 0.6477 0.8849 0.0000
vt 0.6477 0.8493 0.0000
vt 0.8040 0.9931 0.0000
vt 0.8039 0.8160 0.0000
vt 0.7069 0.8464 0.0000
vt 0.6386 0.9296 0.0000
vt 0.6185 0.9931 0.0000
vt 0.8037 0.9927 0.0000
vt 0.6183 0.9927 0.0000
vt 0.7068 0.8464 0.0000
vt 0.8036 0.8160 0.0000
vt 0.9971 0.9927 0.0000
vt 0.9054 0.8464 0.0000
vt 0.9741 0.9296 0.0000
vt 0.9971 0.9931 0.0000
# 39 texture coords

g pCylinder4
usemtl lambert2SG
s 1
f 250/358 251/359 252/360 253/361 
f 254/362 250/358 253/361 255/363 
f 256/364 254/362 255/363 257/365 
f 258/366 256/364 257/365 259/367 
f 260/368 258/366 259/367 261/369 
f 262/370 260/368 261/369 263/371 
f 264/372 262/370 263/371 265/373 
f 266/374 264/372 265/373 267/375 
f 268/376 266/374 267/375 269/377 
f 270/378 268/376 269/377 271/379 
f 272/380 270/378 271/379 273/381 
f 251/382 272/380 273/381 252/383 
f 274/384 256/385 258/386 260/387 262/388 
f 274/389 262/390 264/387 266/391 268/392 
f 251/393 274/389 268/392 270/394 272/395 
f 251/396 250/395 254/394 256/385 274/384 
# 16 polygons

#
# object pCube6_group1
#

v  0.1017 0.1837 0.1852
v  0.0984 0.1837 0.1852
v  0.0984 0.1837 0.2006
v  0.1017 0.1837 0.2006
v  0.1017 0.1801 0.2006
v  0.1017 0.1801 0.1852
v  0.0984 0.1801 0.1852
v  0.0984 0.1801 0.2006
# 8 vertices

vt 0.6735 0.8527 0.0000
vt 0.6418 0.8527 0.0000
vt 0.6418 0.8210 0.0000
vt 0.6735 0.8210 0.0000
# 4 texture coords

g pCube6_group1
usemtl lambert2SG
s off
f 275/397 276/398 277/399 278/400 
f 275/397 278/400 279/400 280/397 
f 277/399 276/398 281/398 282/399 
# 3 polygons

#
# object group1_pCube7
#

v  0.1026 0.2010 0.2340
v  0.0975 0.2010 0.2340
v  0.0975 0.1787 0.2340
v  0.1026 0.1787 0.2340
v  0.1026 0.2010 0.1964
v  0.0975 0.2010 0.1964
v  0.1026 0.1787 0.1964
v  0.0975 0.1787 0.1964
# 8 vertices

vt 0.3858 0.3946 0.0000
vt 0.3048 0.3946 0.0000
vt 0.3048 0.3492 0.0000
vt 0.3858 0.3492 0.0000
vt 0.3858 0.4400 0.0000
vt 0.3048 0.4400 0.0000
vt 0.3858 0.4853 0.0000
vt 0.3048 0.4853 0.0000
vt 0.4667 0.3946 0.0000
vt 0.4667 0.3492 0.0000
vt 0.0610 0.1804 0.0000
vt 0.1849 0.1804 0.0000
vt 0.1849 0.1417 0.0000
vt 0.0610 0.1417 0.0000
# 14 texture coords

g group1_pCube7
usemtl lambert2SG
s off
f 283/401 284/402 285/403 286/404 
f 287/405 288/406 284/402 283/401 
f 289/407 290/408 288/406 287/405 
f 287/409 283/401 286/404 289/410 
f 284/411 288/412 290/413 285/414 
# 5 polygons

#
# object pCube6_group3
#

v  0.1017 0.1837 -0.1141
v  0.0984 0.1837 -0.1141
v  0.0984 0.1837 -0.1295
v  0.1017 0.1837 -0.1295
v  0.1017 0.1801 -0.1295
v  0.1017 0.1801 -0.1141
v  0.0984 0.1801 -0.1141
v  0.0984 0.1801 -0.1295
# 8 vertices

vt 0.6735 0.8527 0.0000
vt 0.6418 0.8527 0.0000
vt 0.6418 0.8210 0.0000
vt 0.6735 0.8210 0.0000
# 4 texture coords

g pCube6_group3
usemtl lambert2SG
s off
f 291/415 292/416 293/417 294/418 
f 291/415 294/418 295/418 296/415 
f 293/417 292/416 297/416 298/417 
# 3 polygons

#
# object group3_pCube7
#

v  0.1026 0.2010 -0.1629
v  0.0975 0.2010 -0.1629
v  0.0975 0.1787 -0.1629
v  0.1026 0.1787 -0.1629
v  0.1026 0.2010 -0.1253
v  0.0975 0.2010 -0.1253
v  0.1026 0.1787 -0.1253
v  0.0975 0.1787 -0.1253
# 8 vertices

vt 0.3858 0.3946 0.0000
vt 0.3048 0.3946 0.0000
vt 0.3048 0.3492 0.0000
vt 0.3858 0.3492 0.0000
vt 0.3858 0.4400 0.0000
vt 0.3048 0.4400 0.0000
vt 0.3858 0.4853 0.0000
vt 0.3048 0.4853 0.0000
vt 0.4667 0.3946 0.0000
vt 0.4667 0.3492 0.0000
vt 0.0610 0.1804 0.0000
vt 0.1849 0.1804 0.0000
vt 0.1849 0.1417 0.0000
vt 0.0610 0.1417 0.0000
# 14 texture coords

g group3_pCube7
usemtl lambert2SG
s off
f 299/419 300/420 301/421 302/422 
f 303/423 304/424 300/420 299/419 
f 305/425 306/426 304/424 303/423 
f 303/427 299/419 302/422 305/428 
f 300/429 304/430 306/431 301/432 
# 5 polygons

